…
```
When the catalog item is printed, it shows a data dictionary for the 
specified dataset.  Column names and data types are displayed, along with
some other useful attributes of your data.

Once the catalog is created, you are ready to fetch data from the catalog:

```{r eval=FALSE, echo=TRUE}

# Fetch data from a catalog
dt <- fetch(ct$ADEX)

# View data
dt
# A tibble: 348 × 17
#    STUDYID USUBJID    SUBJID SITEID TRTP  TRTPN TRTA  TRTAN RANDFL SAFFL MITTFL PPROTFL
#    <chr>   <chr>      <chr>  <chr>  <chr> <dbl> <chr> <dbl> <chr>  <chr> <chr>  <chr>  
#  1 ABC     ABC-01-049 049    01     ARM D     4 ARM D     4 Y      Y     Y      Y      
#  2 ABC     ABC-01-049 049    01     ARM D     4 ARM D     4 Y      Y     Y      Y      
#  3 ABC     ABC-01-049 049    01     ARM D     4 ARM D     4 Y      Y     Y      Y      
#  4 ABC     ABC-01-049 049    01     ARM D     4 ARM D     4 Y      Y     Y      Y      
#  5 ABC     ABC-01-050 050    01     ARM B     2 ARM B     2 Y      Y     Y      Y      
#  6 ABC     ABC-01-050 050    01     ARM B     2 ARM B     2 Y      Y     Y      Y      
#  7 ABC     ABC-01-050 050    01     ARM B     2 ARM B     2 Y      Y     Y      Y      
#  8 ABC     ABC-01-050 050    01     ARM B     2 ARM B     2 Y      Y     Y      Y      
#  9 ABC     ABC-01-051 051    01     ARM A     1 ARM A     1 Y      Y     Y      Y      
# 10 ABC     ABC-01-051 051    01     ARM A     1 ARM A     1 Y      Y     Y      Y      
#  338 more rows
#  5 more variables: PARAM <chr>, PARAMCD <chr>, PARAMN <dbl>, AVAL <dbl>,
#   AVALCAT1 <chr>
#  Use `print(n = ...)` to see more rows
…
